{
  "dev": {
    "awscloudformation": {
      "AuthRoleName": "amplify-testlogin-dev-155010-authRole",
      "UnauthRoleArn": "arn:aws:iam::702097669998:role/amplify-testlogin-dev-155010-unauthRole",
      "AuthRoleArn": "arn:aws:iam::702097669998:role/amplify-testlogin-dev-155010-authRole",
      "Region": "ap-northeast-1",
      "DeploymentBucketName": "amplify-testlogin-dev-155010-deployment",
      "UnauthRoleName": "amplify-testlogin-dev-155010-unauthRole",
      "StackName": "amplify-testlogin-dev-155010",
      "StackId": "arn:aws:cloudformation:ap-northeast-1:702097669998:stack/amplify-testlogin-dev-155010/6840ddc0-708b-11ed-bdcd-0ebe005f4405",
      "AmplifyAppId": "d1rhh3pe42aze2"
    },
    "categories": {
      "auth": {
        "testloginda375ea4": {}
      }
    }
  }
}